Getting Started • rsgeo
…
This is markedly faster when using rsgeo. We also do not have to
extract the vector and work with it as its own object. Any vector can be
included in a data frame, remember?

roxel |> 
    as_tibble() |> 
    mutate(
      geometry = as_rsgeo(geometry),
      length = length_haversine(geometry)
    )
#> # A tibble: 851 × 4
#>    name                  type       
#>    <chr>                 <fct>      
#>  1 Havixbecker Strasse   residential
#>  2 Pienersallee          secondary  
#>  3 Schulte-Bernd-Strasse residential
#>  4 NA                    path       
#>  5 Welsingheide          residential
#>  6 NA                    footway    
#>  7 NA                    footway    
#>  8 NA                    path       
#>  9 NA                    track      
#> 10 NA                    track      
#> # ℹ 841 more rows
#> # ℹ 2 more variables: geometry <r_LINEST>, length <dbl>
…
